verilog xil_defaultlib --include "C:/Xilinx/Vivado/2023.2/data/xilinx_vip/include" --include "../../../../zynq_sysmon_gpio_axi.gen/sources_1/bd/zynq/ipshared/ec67/hdl" --include "../../../../zynq_sysmon_gpio_axi.gen/sources_1/bd/zynq/ipshared/2fcd/hdl" \
"../../../bd/zynq/ip/zynq_zynq_ultra_ps_e_0_0/sim/zynq_zynq_ultra_ps_e_0_0_vip_wrapper.v" \
"../../../bd/zynq/ip/zynq_xbar_0/sim/zynq_xbar_0.v" \
"../../../bd/zynq/ip/zynq_auto_ds_0/sim/zynq_auto_ds_0.v" \
"../../../bd/zynq/ip/zynq_auto_pc_0/sim/zynq_auto_pc_0.v" \
"../../../bd/zynq/ip/zynq_auto_ds_1/sim/zynq_auto_ds_1.v" \
"../../../bd/zynq/ip/zynq_auto_pc_1/sim/zynq_auto_pc_1.v" \

verilog xil_defaultlib "glbl.v"

# Do not sort compile order
nosort
